Homework 1-Rishit Puri
…
## 
## Attaching package: 'dplyr'

## The following objects are masked from 'package:stats':
## 
##     filter, lag

## The following objects are masked from 'package:base':
## 
##     intersect, setdiff, setequal, union

countypop %>%
  na.omit()

## # A tibble: 3,139 x 4
##    fips  abbr  county          pop_2015
##    <chr> <chr> <chr>              <dbl>
##  1 01001 AL    Autauga County     55347
##  2 01003 AL    Baldwin County    203709
##  3 01007 AL    Bibb County        22583
##  4 01009 AL    Blount County      57673
##  5 01011 AL    Bullock County     10696
##  6 01013 AL    Butler County      20154
##  7 01015 AL    Calhoun County    115620
##  8 01017 AL    Chambers County    34123
##  9 01019 AL    Cherokee County    25859
## 10 01021 AL    Chilton County     43943
## #  with 3,129 more rows

###county using dplyr

newcountypop %>%
  count(county)

## # A tibble: 1,876 x 2
##    county               n
##  * <chr>            <int>
##  1 Abbeville County     1
##  2 Acadia Parish        1
##  3 Accomack County      1
##  4 Ada County           1
##  5 Adair County         4
##  6 Adams County        12
##  7 Addison County       1
##  8 Aiken County         1
##  9 Aitkin County        1
## 10 Alachua County       1
## #  with 1,866 more rows
…
